<svg xmlns="http://www.w3.org/2000/svg" width="141" height="32" fill="none" viewBox="0 0 141 32">
    <path fill="#fff" d="M51.783 24h2.067l-3.783-12h-2.95l-3.784 12H45.4l.817-2.6h4.733l.833 2.6zm-4.966-4.483l1.75-5.567 1.783 5.567h-3.533zm10.842-2.95h2.65V15h-2.65v-2.5h-2V15h-1.633v1.567h1.633v3.75c0 1.033-.083 1.916.367 2.616.467.717 1 1 1.817 1.134.65.116 1.783.116 2.466-.067v-1.683c-.483.066-1.033.1-1.483.066-.367-.033-.767-.183-.983-.55-.217-.35-.184-.916-.184-1.616v-3.65zm8.1 7.683c2.684 0 4.484-1.95 4.484-4.75 0-2.783-1.784-4.75-4.484-4.75-2.666 0-4.483 1.933-4.483 4.75 0 2.783 1.767 4.75 4.483 4.75zm2.367-4.75c0 1.683-.783 2.867-2.367 2.867-1.55 0-2.35-1.117-2.35-2.867 0-1.7.734-2.867 2.35-2.867 1.567 0 2.367 1.117 2.367 2.867zm15.914-3.933c-.55-.567-1.45-.784-2.184-.784-1.1 0-2.133.517-2.75 1.417a2.782 2.782 0 0 0-.483-.633c-.567-.567-1.467-.784-2.2-.784-.983 0-1.95.434-2.567 1.167V15h-1.783v9h2.017v-5.533c0-.484.066-.917.433-1.334a1.67 1.67 0 0 1 1.267-.566c.45 0 .9.166 1.2.483.4.4.5.85.5 1.583V24h2.033v-5.533c0-.484.067-.917.433-1.334.3-.366.784-.566 1.267-.566.45 0 .883.166 1.183.483.417.4.517.85.517 1.583V24h2.017l.016-5.5c0-1.183-.083-2.117-.916-2.933zM94.553 24v-5.417c0-.583-.05-1.116-.183-1.583-.467-1.467-1.7-2.25-3.55-2.25-1.983 0-3.317 1.117-3.883 2.517l1.816.566c.334-.866 1.1-1.25 2-1.25.95 0 1.717.45 1.817 1.534-1.517.216-3.033.383-4.217.85-1.05.416-1.733 1.2-1.733 2.483 0 1.683 1.166 2.8 2.966 2.8 1.55 0 2.434-.467 3.217-1.433V24h1.75zm-2.3-2.533c-.416.7-1.266 1.2-2.216 1.2-.95 0-1.45-.55-1.45-1.167 0-.667.516-1.017 1.25-1.233.8-.217 1.466-.317 2.733-.5 0 .45-.033 1.183-.317 1.7zm4.794.483V24h2.05v-2.05h-2.05zm13.163-1.983c-.133.4-.316.783-.566 1.116-.634.85-1.55 1.284-2.634 1.267-1.1-.017-2.15-.417-2.766-1.267-.684-.866-.85-1.983-.867-3.083-.017-1.117.2-2.25.867-3.083.616-.85 1.666-1.284 2.766-1.267 1.1.017 1.984.417 2.634 1.267.266.366.466.783.6 1.233l2.016-.283c-.266-1.084-.75-2.067-1.733-2.9-.983-.867-2.217-1.217-3.65-1.217-1.717 0-3.217.633-4.267 1.933-.983 1.184-1.35 2.684-1.35 4.317 0 1.55.4 3.05 1.367 4.3.983 1.267 2.5 1.95 4.25 1.95 1.4 0 2.65-.317 3.667-1.2.9-.767 1.35-1.65 1.633-2.6l-1.967-.483zM121.381 24v-5.417c0-.583-.05-1.116-.183-1.583-.467-1.467-1.7-2.25-3.55-2.25-1.983 0-3.317 1.117-3.883 2.517l1.816.566c.334-.866 1.1-1.25 2-1.25.95 0 1.717.45 1.817 1.534-1.517.216-3.033.383-4.217.85-1.05.416-1.733 1.2-1.733 2.483 0 1.683 1.167 2.8 2.967 2.8 1.55 0 2.433-.467 3.216-1.433V24h1.75zm-2.3-2.533c-.416.7-1.266 1.2-2.216 1.2-.95 0-1.45-.55-1.45-1.167 0-.667.516-1.017 1.25-1.233.8-.217 1.466-.317 2.733-.5 0 .45-.033 1.183-.317 1.7zm11.577-4.067c-.233-1.733-1.833-2.65-3.8-2.65-1.833 0-3.516.9-3.516 2.7 0 1.267.8 2.05 2 2.383.65.2 1.35.384 2.133.6.733.2 1.2.45 1.2 1.034 0 .683-.667 1.033-1.5 1.033-1.033 0-1.867-.467-2.083-1.433l-2.05.316c.35 2 1.9 2.867 4.083 2.867 2.033 0 3.6-1.033 3.6-2.883 0-1.5-.95-2.184-2.783-2.65-.684-.184-1.15-.3-1.6-.434-.65-.2-1-.433-1-.933 0-.55.683-.9 1.566-.867.917.034 1.6.517 1.7 1.284l2.05-.367zm9.082-1.733c-.834-.8-1.867-.967-2.9-.9-.8.033-1.7.333-2.3 1.016a2.08 2.08 0 0 0-.184.217v-4h-1.783v12h2.017v-3.917c0-.65.016-1.35.1-1.783.116-.533.35-.967.716-1.25.317-.267.717-.4 1.184-.417.633-.016 1.133.167 1.5.517.566.533.716 1.533.716 2.583V24h2.034v-4.35c0-1.45-.05-3.033-1.1-3.983z"/>
    <g fill="#fff" clip-path="url(#a)">
        <path d="M.104 4.709v24.718c0 .82.42 1.583 1.11 2.022.69.438 1.557.491 2.295.14l21.61-10.302a2.577 2.577 0 0 0 1.463-2.327c0-.994-.57-1.9-1.463-2.326L.104 4.709z"/>
        <path d="M12.329 2.4v8.137L.104 4.71 9.161.389a2.21 2.21 0 0 1 2.135.13A2.23 2.23 0 0 1 12.33 2.4z" opacity=".5"/>
    </g>
    <defs>
        <clipPath id="a">
            <path fill="#fff" d="M0 0h26.667v32H0z"/>
        </clipPath>
    </defs>
</svg>
